{
  "name": "simple-building",
  "centralized": "adp",
  "common_knowledge":["http://w3id.org/laas-iot/edr", "http://w3id.org/laas-iot/edr/edrt.ttl"],
  "layers": {
    "type": "building",
    "count": 1,
    "host": "http://localhost",
    "concentrates": [{
      "type": "room",
      "count": 1,
      "feature": "self",
      "host": "http://localhost",
      "concentrates": [{
        "type": "room",
        "count": 1,
        "feature": "self",
        "host": "http://localhost",
        "concentrates": [{
            "type": "sensor",
            "host": "http://localhost",
            "measures": "temperature",
            "count": 1
          }, {
            "type": "sensor",
            "host": "http://localhost",
            "measures": "luminosity",
            "count": 1
          }
        ]
      }]
    },{
      "type": "room",
      "count": 1,
      "feature": "http://example.com/ns#livingRoom",
      "host": "http://localhost",
      "concentrates": [ {
          "type": "sensor",
          "host": "http://localhost",
          "measures": "luminosity",
          "count": 1
        }
      ]
    },{
      "type": "room",
      "count": 1,
      "feature": "http://example.com/ns#livingRoom",
      "host": "http://localhost",
      "concentrates": [{
          "type": "sensor",
          "host": "http://localhost",
          "measures": "temperature",
          "count": 1
        }
      ]
    }, {
        "type": "sensor",
        "host": "http://localhost",
        "measures": "temperature",
        "count": 1
      }, {
        "type": "sensor",
        "host": "http://localhost",
        "measures": "luminosity",
        "count": 1
      },{
        "type": "sensor",
        "host": "http://localhost",
        "measures": "temperature_request",
        "count": 1
      }]
  }
}
