{
  "common_knowledge": [
    "https://w3id.org/laas-iot/edr/iiot/scala_distributed/clone_f_1_rpi23sb.ttl"
  ],
  "layers": {
    "concentrates": [
      {
        "feature": "https://w3id.org/laas-iot/edr/iiot/factory#Floor0",
        "concentrates": [
          {
            "count": 1,
            "measures": "presence",
            "type": "sensor",
            "host": "http://syndream.laas.fr"
          },
          {
            "count": 1,
            "measures": "luminosity",
            "type": "sensor",
            "host": "http://syndream.laas.fr"
          },
          {
            "count": 1,
            "measures": "particle_level",
            "type": "sensor",
            "host": "http://syndream.laas.fr"
          },
          {
            "count": 1,
            "measures": "temperature",
            "type": "sensor",
            "host": "http://syndream.laas.fr"
          },
          {
            "feature": "https://w3id.org/laas-iot/edr/iiot/factory#Conveyor00",
            "concentrates": [
              {
                "count": 1,
                "measures": "conveyor_state",
                "type": "sensor",
                "host": "http://syndream.laas.fr"
              },
              {
                "count": 1,
                "measures": "presence",
                "type": "sensor",
                "host": "http://syndream.laas.fr"
              },
              {
                "count": 1,
                "measures": "conveyor_speed",
                "type": "sensor",
                "host": "http://syndream.laas.fr"
              },
              {
                "count": 1,
                "measures": "supervisor_presence",
                "type": "sensor",
                "host": "http://syndream.laas.fr"
              },
              {
                "feature": "https://w3id.org/laas-iot/edr/iiot/factory#Machine000",
                "concentrates": [
                  {
                    "count": 1,
                    "measures": "machine_state",
                    "type": "sensor",
                    "host": "http://syndream.laas.fr"
                  },
                  {
                    "count": 1,
                    "measures": "product_quality",
                    "type": "sensor",
                    "host": "http://syndream.laas.fr"
                  },
                  {
                    "count": 1,
                    "measures": "machine_speed",
                    "type": "sensor",
                    "host": "http://syndream.laas.fr"
                  }
                ],
                "count": 1,
                "type": "room",
                "host": "http://140.93.48.11"
              },
              {
                "feature": "https://w3id.org/laas-iot/edr/iiot/factory#Machine001",
                "concentrates": [
                  {
                    "count": 1,
                    "measures": "machine_state",
                    "type": "sensor",
                    "host": "http://syndream.laas.fr"
                  },
                  {
                    "count": 1,
                    "measures": "product_quality",
                    "type": "sensor",
                    "host": "http://syndream.laas.fr"
                  },
                  {
                    "count": 1,
                    "measures": "machine_speed",
                    "type": "sensor",
                    "host": "http://syndream.laas.fr"
                  }
                ],
                "count": 1,
                "type": "room",
                "host": "http://140.93.48.11"
              }
            ],
            "count": 1,
            "type": "gallery",
            "host": "http://rate.laas.fr"
          },
          {
            "feature": "https://w3id.org/laas-iot/edr/iiot/factory#Conveyor01",
            "concentrates": [
              {
                "count": 1,
                "measures": "conveyor_state",
                "type": "sensor",
                "host": "http://syndream.laas.fr"
              },
              {
                "count": 1,
                "measures": "conveyor_speed",
                "type": "sensor",
                "host": "http://syndream.laas.fr"
              },
              {
                "count": 1,
                "measures": "supervisor_presence",
                "type": "sensor",
                "host": "http://syndream.laas.fr"
              },
              {
                "feature": "https://w3id.org/laas-iot/edr/iiot/factory#Machine010",
                "concentrates": [
                  {
                    "count": 1,
                    "measures": "machine_state",
                    "type": "sensor",
                    "host": "http://syndream.laas.fr"
                  },
                  {
                    "count": 1,
                    "measures": "product_quality",
                    "type": "sensor",
                    "host": "http://syndream.laas.fr"
                  },
                  {
                    "count": 1,
                    "measures": "machine_speed",
                    "type": "sensor",
                    "host": "http://syndream.laas.fr"
                  }
                ],
                "count": 1,
                "type": "room",
                "host": "http://140.93.48.11"
              },
              {
                "feature": "https://w3id.org/laas-iot/edr/iiot/factory#Machine011",
                "concentrates": [
                  {
                    "count": 1,
                    "measures": "machine_state",
                    "type": "sensor",
                    "host": "http://syndream.laas.fr"
                  },
                  {
                    "count": 1,
                    "measures": "product_quality",
                    "type": "sensor",
                    "host": "http://syndream.laas.fr"
                  },
                  {
                    "count": 1,
                    "measures": "machine_speed",
                    "type": "sensor",
                    "host": "http://syndream.laas.fr"
                  }
                ],
                "count": 1,
                "type": "room",
                "host": "http://140.93.48.11"
              }
            ],
            "count": 1,
            "type": "gallery",
            "host": "http://rate.laas.fr"
          }
        ],
        "count": 1,
        "type": "floor",
        "host": "http://syndream.laas.fr"
      },
      {
        "feature": "https://w3id.org/laas-iot/edr/iiot/factory#Floor1",
        "concentrates": [
          {
            "count": 1,
            "measures": "presence",
            "type": "sensor",
            "host": "http://syndream.laas.fr"
          },
          {
            "count": 1,
            "measures": "luminosity",
            "type": "sensor",
            "host": "http://syndream.laas.fr"
          },
          {
            "count": 1,
            "measures": "particle_level",
            "type": "sensor",
            "host": "http://syndream.laas.fr"
          },
          {
            "count": 1,
            "measures": "temperature",
            "type": "sensor",
            "host": "http://syndream.laas.fr"
          },
          {
            "feature": "https://w3id.org/laas-iot/edr/iiot/factory#Conveyor10",
            "concentrates": [
              {
                "count": 1,
                "measures": "conveyor_state",
                "type": "sensor",
                "host": "http://syndream.laas.fr"
              },
              {
                "count": 1,
                "measures": "presence",
                "type": "sensor",
                "host": "http://syndream.laas.fr"
              },
              {
                "count": 1,
                "measures": "conveyor_speed",
                "type": "sensor",
                "host": "http://syndream.laas.fr"
              },
              {
                "count": 1,
                "measures": "supervisor_presence",
                "type": "sensor",
                "host": "http://syndream.laas.fr"
              },
              {
                "feature": "https://w3id.org/laas-iot/edr/iiot/factory#Machine100",
                "concentrates": [
                  {
                    "count": 1,
                    "measures": "machine_state",
                    "type": "sensor",
                    "host": "http://syndream.laas.fr"
                  },
                  {
                    "count": 1,
                    "measures": "product_quality",
                    "type": "sensor",
                    "host": "http://syndream.laas.fr"
                  },
                  {
                    "count": 1,
                    "measures": "machine_speed",
                    "type": "sensor",
                    "host": "http://syndream.laas.fr"
                  }
                ],
                "count": 1,
                "type": "room",
                "host": "http://140.93.48.11"
              },
              {
                "feature": "https://w3id.org/laas-iot/edr/iiot/factory#Machine101",
                "concentrates": [
                  {
                    "count": 1,
                    "measures": "machine_state",
                    "type": "sensor",
                    "host": "http://syndream.laas.fr"
                  },
                  {
                    "count": 1,
                    "measures": "product_quality",
                    "type": "sensor",
                    "host": "http://syndream.laas.fr"
                  },
                  {
                    "count": 1,
                    "measures": "machine_speed",
                    "type": "sensor",
                    "host": "http://syndream.laas.fr"
                  }
                ],
                "count": 1,
                "type": "room",
                "host": "http://140.93.48.11"
              }
            ],
            "count": 1,
            "type": "gallery",
            "host": "http://rate.laas.fr"
          },
          {
            "feature": "https://w3id.org/laas-iot/edr/iiot/factory#Conveyor11",
            "concentrates": [
              {
                "count": 1,
                "measures": "conveyor_state",
                "type": "sensor",
                "host": "http://syndream.laas.fr"
              },
              {
                "count": 1,
                "measures": "conveyor_speed",
                "type": "sensor",
                "host": "http://syndream.laas.fr"
              },
              {
                "count": 1,
                "measures": "supervisor_presence",
                "type": "sensor",
                "host": "http://syndream.laas.fr"
              },
              {
                "feature": "https://w3id.org/laas-iot/edr/iiot/factory#Machine110",
                "concentrates": [
                  {
                    "count": 1,
                    "measures": "machine_state",
                    "type": "sensor",
                    "host": "http://syndream.laas.fr"
                  },
                  {
                    "count": 1,
                    "measures": "product_quality",
                    "type": "sensor",
                    "host": "http://syndream.laas.fr"
                  },
                  {
                    "count": 1,
                    "measures": "machine_speed",
                    "type": "sensor",
                    "host": "http://syndream.laas.fr"
                  }
                ],
                "count": 1,
                "type": "room",
                "host": "http://140.93.48.11"
              },
              {
                "feature": "https://w3id.org/laas-iot/edr/iiot/factory#Machine111",
                "concentrates": [
                  {
                    "count": 1,
                    "measures": "machine_state",
                    "type": "sensor",
                    "host": "http://syndream.laas.fr"
                  },
                  {
                    "count": 1,
                    "measures": "product_quality",
                    "type": "sensor",
                    "host": "http://syndream.laas.fr"
                  },
                  {
                    "count": 1,
                    "measures": "machine_speed",
                    "type": "sensor",
                    "host": "http://syndream.laas.fr"
                  }
                ],
                "count": 1,
                "type": "room",
                "host": "http://140.93.48.11"
              }
            ],
            "count": 1,
            "type": "gallery",
            "host": "http://rate.laas.fr"
          }
        ],
        "count": 1,
        "type": "floor",
        "host": "http://syndream.laas.fr"
      }
    ],
    "count": 1,
    "type": "building",
    "host": "http://syndream.laas.fr"
  },
  "centralized": "adp",
  "name": "myFactory"
}