{
	"name":"livingroom",
	"uri":"http://localhost",
	"port":6003,
	"tbox":["https://w3id.org/laas-iot/edr/livingroom.ttl", "https://syndream.laas.fr:8082/lmu","https://syndream.laas.fr:8082/adream", "https://syndream.laas.fr:8082/adream-appartment/", "http://elite.polito.it/ontologies/dogont.owl"],
	"queries":"queries/devices",
	"remotes": ["http://localhost:6001/"],
	"sensors":["http://localhost:8001/"],
	"local":false
}