{
  "name": "myFactory",
  "layers": {
    "host": "http://localhost",
    "type": "building",
    "count": 1,
    "concentrates": [
      {
        "host": "http://localhost",
        "type": "floor",
        "count": 1,
        "concentrates": [
          {
            "measures": "particle_level",
            "host": "http://localhost",
            "type": "sensor",
            "count": 1
          },
          {
            "measures": "temperature",
            "host": "http://localhost",
            "type": "sensor",
            "count": 1
          },
          {
            "measures": "particle_level",
            "host": "http://localhost",
            "type": "sensor",
            "count": 1
          },
          {
            "measures": "temperature",
            "host": "http://localhost",
            "type": "sensor",
            "count": 1
          },
          {
            "measures": "luminosity",
            "host": "http://localhost",
            "type": "sensor",
            "count": 1
          },
          {
            "measures": "presence",
            "host": "http://localhost",
            "type": "sensor",
            "count": 1
          },
          {
            "measures": "luminosity",
            "host": "http://localhost",
            "type": "sensor",
            "count": 1
          },
          {
            "measures": "presence",
            "host": "http://localhost",
            "type": "sensor",
            "count": 1
          },
          {
            "measures": "luminosity",
            "host": "http://localhost",
            "type": "sensor",
            "count": 1
          },
          {
            "measures": "presence",
            "host": "http://localhost",
            "type": "sensor",
            "count": 1
          },
          {
            "measures": "luminosity",
            "host": "http://localhost",
            "type": "sensor",
            "count": 1
          },
          {
            "measures": "presence",
            "host": "http://localhost",
            "type": "sensor",
            "count": 1
          },
          {
            "measures": "luminosity",
            "host": "http://localhost",
            "type": "sensor",
            "count": 1
          },
          {
            "measures": "presence",
            "host": "http://localhost",
            "type": "sensor",
            "count": 1
          },
          {
            "measures": "luminosity",
            "host": "http://localhost",
            "type": "sensor",
            "count": 1
          },
          {
            "measures": "presence",
            "host": "http://localhost",
            "type": "sensor",
            "count": 1
          },
          {
            "host": "http://localhost",
            "type": "gallery",
            "count": 1,
            "concentrates": [
              {
                "measures": "conveyor_state",
                "host": "http://localhost",
                "type": "sensor",
                "count": 1
              },
              {
                "measures": "conveyor_speed",
                "host": "http://localhost",
                "type": "sensor",
                "count": 1
              },
              {
                "measures": "supervisor_presence",
                "host": "http://localhost",
                "type": "sensor",
                "count": 1
              },
              {
                "host": "http://localhost",
                "type": "room",
                "count": 1,
                "concentrates": [
                  {
                    "measures": "machine_state",
                    "host": "http://localhost",
                    "type": "sensor",
                    "count": 1
                  },
                  {
                    "measures": "product_quality",
                    "host": "http://localhost",
                    "type": "sensor",
                    "count": 1
                  },
                  {
                    "measures": "machine_speed",
                    "host": "http://localhost",
                    "type": "sensor",
                    "count": 1
                  }
                ],
                "feature": "https://w3id.org/laas-iot/edr/iiot/factory#Machine000"
              },
              {
                "host": "http://localhost",
                "type": "room",
                "count": 1,
                "concentrates": [
                  {
                    "measures": "machine_state",
                    "host": "http://localhost",
                    "type": "sensor",
                    "count": 1
                  },
                  {
                    "measures": "product_quality",
                    "host": "http://localhost",
                    "type": "sensor",
                    "count": 1
                  },
                  {
                    "measures": "machine_speed",
                    "host": "http://localhost",
                    "type": "sensor",
                    "count": 1
                  }
                ],
                "feature": "https://w3id.org/laas-iot/edr/iiot/factory#Machine001"
              }
            ],
            "feature": "https://w3id.org/laas-iot/edr/iiot/factory#Conveyor00"
          },
          {
            "host": "http://localhost",
            "type": "gallery",
            "count": 1,
            "concentrates": [
              {
                "measures": "conveyor_state",
                "host": "http://localhost",
                "type": "sensor",
                "count": 1
              },
              {
                "measures": "conveyor_speed",
                "host": "http://localhost",
                "type": "sensor",
                "count": 1
              },
              {
                "measures": "supervisor_presence",
                "host": "http://localhost",
                "type": "sensor",
                "count": 1
              },
              {
                "host": "http://localhost",
                "type": "room",
                "count": 1,
                "concentrates": [
                  {
                    "measures": "machine_state",
                    "host": "http://localhost",
                    "type": "sensor",
                    "count": 1
                  },
                  {
                    "measures": "product_quality",
                    "host": "http://localhost",
                    "type": "sensor",
                    "count": 1
                  },
                  {
                    "measures": "machine_speed",
                    "host": "http://localhost",
                    "type": "sensor",
                    "count": 1
                  }
                ],
                "feature": "https://w3id.org/laas-iot/edr/iiot/factory#Machine010"
              },
              {
                "host": "http://localhost",
                "type": "room",
                "count": 1,
                "concentrates": [
                  {
                    "measures": "machine_state",
                    "host": "http://localhost",
                    "type": "sensor",
                    "count": 1
                  },
                  {
                    "measures": "product_quality",
                    "host": "http://localhost",
                    "type": "sensor",
                    "count": 1
                  },
                  {
                    "measures": "machine_speed",
                    "host": "http://localhost",
                    "type": "sensor",
                    "count": 1
                  }
                ],
                "feature": "https://w3id.org/laas-iot/edr/iiot/factory#Machine011"
              }
            ],
            "feature": "https://w3id.org/laas-iot/edr/iiot/factory#Conveyor01"
          }
        ],
        "feature": "https://w3id.org/laas-iot/edr/iiot/factory#Floor0"
      }
    ]
  },
  "common_knowledge": [
    "https://w3id.org/laas-iot/edr/iiot/distribution_syndream/distribution_0.ttl"
  ],
  "centralized": "adp"
}