{
  "type":"factory",
  "floors":[{
      "type":"floor",
      "sensors":["particle_level", "temperature","particle_level", "temperature"],
      "count":1,
      "conveyors":[{
          "type":"conveyor",
          "sensors":[ "luminosity", "presence", "luminosity", "presence", "luminosity", "presence", "conveyor_state", "conveyor_speed", "supervisor_presence"],
          "count":2,
          "machines":[{
              "type":"spark_machine",
              "sensors":["machine_state", "product_quality", "machine_speed"],
              "count":1
            },{
              "type":"temperature_machine",
              "sensors":["machine_state", "product_quality", "machine_speed"],
              "count":1
          }]
        }
      ]
    }
  ]
}
