{
  "type":"factory",
  "floors":[{
      "type":"floor",
      "sensors":["presence", "luminosity", "particle_level", "temperature"],
      "count":2,
      "conveyors":[{
          "type":"conveyor",
          "sensors":["conveyor_state", "presence", "conveyor_speed"],
          "count":1,
          "machines":[{
              "type":"spark_machine",
              "sensors":["machine_state", "product_quality", "machine_speed"],
              "count":2
            },{
              "type":"temperature_machine",
              "sensors":["machine_state", "product_quality", "machine_speed"],
              "count":2
          }]
        }
      ]
    }
  ]
}
